{
  "profiles": {
    "FluentArchiver.Console": {
      "commandName": "Project",
      "commandLineArgs": "compress \"../../../../../TestFiles/Test.cap\" \"../../../../../TestFiles/TestCompressed.7z\""
    },
    "Decompress": {
      "commandName": "Project",
      "commandLineArgs": "decompress \"../../../../../TestFiles/TestCompressed.7z\" \"../../../../../TestFiles/TestDecompressed.cap\""
    }
  }
}